XPath locators for
                  yandex
                        $x ("//div[@class='serp-list']//h2/a/text()")


                  google
                        $x ("//div[@id='ires']//h3/a/text()")


                  bing
                        $x ("//div[@id='b_content']//h2/a/text()")



CSS locators for
                  yandex
                        $ ("div.serp-list h2 > a")


                  google
                        $ ("div#ires h3 > a")
                      

                  bing
                        $ ("div#b_content h2 > a")


